<?xml version="1.0" encoding="UTF-8"?>
<svg width="64px" height="64px" viewBox="0 0 64 64" version="1.1" xmlns="http://www.w3.org/2000/svg" xmlns:xlink="http://www.w3.org/1999/xlink">
    <!-- Generator: Sketch 46.2 (44496) - http://www.bohemiancoding.com/sketch -->
    <title>1-o_que_e_o_mapee</title>
    <desc>Created with Sketch.</desc>
    <defs></defs>
    <g id="Page-1" stroke="none" stroke-width="1" fill="none" fill-rule="evenodd">
        <g id="1-o_que_e_o_mapee" fill-rule="nonzero" fill="#000000">
            <path d="M37.1572812,43.4397003 C36.5330194,44.0909675 35.5337761,44.1860893 34.8005666,43.6640449 L23.6414221,35.3021079 C23.3021257,35.0499215 23.0769524,34.670438 23.016368,34.2487072 C22.9557836,33.8269765 23.0648548,33.398267 23.3191363,33.0586614 L24.7492794,31.1313369 C25.2788626,30.4199598 26.2740909,30.2701688 26.9851369,30.7948199 L34.1459236,36.1179067 C34.8802744,36.6355789 35.8764504,36.5407492 36.5026383,35.893562 L52.5162121,18.5068515 C53.1136501,17.8642341 54.1104982,17.8278621 54.7520695,18.4252717 L56.4944269,20.0670666 C57.1357044,20.6730372 57.1717423,21.6901658 56.5749984,22.3411056 L37.1572812,43.4397003 Z" id="Shape"></path>
            <path d="M49.434461,37.3435897 L49.434461,46.8717949 C49.428991,48.2402593 48.3506137,49.3482261 47.0186958,49.3538462 L16.9913329,49.3538462 C15.6555182,49.3538578 14.5710824,48.2442513 14.5655852,46.8717949 L14.5655852,17.1282051 C14.5655852,15.7517416 15.6516294,14.6358974 16.9913329,14.6358974 L47.0186958,14.6358974 C48.3544992,14.6415455 49.4344723,15.755737 49.434461,17.1282051 L49.434461,18.5948718 C49.434461,19.4769231 50.0633586,18.7897436 50.0633586,18.7897436 L51.5906812,17.3128205 C51.8523527,17.0905764 52.002683,16.7590626 51.9999637,16.4102564 L51.9999637,14.4820513 C51.9944666,13.1095948 50.9100307,11.9999884 49.574216,12 L14.4158477,12 C13.0839297,12.00562 12.0055524,13.1135869 12.0000824,14.4820513 L12.0000824,49.4871795 C11.9947676,50.1499536 12.2466185,50.7876052 12.6999516,51.2591513 C13.1532847,51.7306974 13.7707572,51.9972949 14.4158477,52 L49.574216,52 C50.906134,51.99438 51.9845113,50.8864131 51.9899812,49.5179487 L51.9899812,34.5025641 C51.9899812,33.8051282 51.4409437,34.4205128 51.4409437,34.4205128 C51.4409437,34.4205128 50.3528511,35.6717949 49.8237785,36.1948718 C49.5244689,36.492955 49.3800864,36.9189693 49.434461,37.3435897 Z" id="Shape"></path>
        </g>
    </g>
</svg>