<?xml version="1.0" encoding="UTF-8"?>
<svg width="64px" height="64px" viewBox="0 0 64 64" version="1.1" xmlns="http://www.w3.org/2000/svg" xmlns:xlink="http://www.w3.org/1999/xlink">
    <!-- Generator: Sketch 46.2 (44496) - http://www.bohemiancoding.com/sketch -->
    <title>3-todas_as_empresas_devem_ter_o_mapee </title>
    <desc>Created with Sketch.</desc>
    <defs></defs>
    <g id="Page-1" stroke="none" stroke-width="1" fill="none" fill-rule="evenodd">
        <g id="3-todas_as_empresas_devem_ter_o_mapee-" fill-rule="nonzero" fill="#000000">
            <path d="M55.2856549,49.18 L54.6903676,49.18 C54.3629596,49.18 54.3629596,48.79 54.3629596,48.79 L54.3629596,21.55 C54.3629596,20.8596441 53.8077113,20.3 53.1227777,20.3 L43.558495,20.3 C43.4752403,20.3054635 43.3933556,20.2766024 43.3316216,20.2200364 C43.2698877,20.1634704 43.233602,20.0840532 43.231087,20 L43.231087,14.73 C43.231087,14.68 43.231087,14.62 43.4295161,14.62 C43.8075994,14.62 44.1140965,14.3110765 44.1140965,13.93 L44.1140965,12.69 C44.1140965,12.3089235 43.8075994,12 43.4295161,12 L21.2153782,12 C20.8372949,12 20.5307978,12.3089235 20.5307978,12.69 L20.5307978,13.92 C20.5307978,14.3010765 20.8372949,14.61 21.2153782,14.61 C21.2688402,14.6070808 21.3210119,14.627213 21.3588707,14.6653715 C21.3967295,14.70353 21.4167036,14.7561147 21.4138073,14.81 L21.4138073,19.81 C21.4138073,19.81 21.4138073,20.26 21.1558494,20.26 L10.8176932,20.26 C10.4835083,20.2625219 10.1644769,20.4008771 9.93288117,20.6437187 C9.70128548,20.8865603 9.57672923,21.2133328 9.58743281,21.55 L9.58743281,48.88 C9.58743281,49.14 9.44853244,49.18 9.1707317,49.18 L8.6845804,49.18 C8.30649709,49.18 8,49.4889235 8,49.87 L8,51.31 C8,51.6910765 8.30649709,52 8.6845804,52 L55.3154193,52 C55.6935026,52 55.9999997,51.6910765 55.9999997,51.31 L55.9999997,49.87 C56.0001764,49.6816822 55.9239798,49.5014738 55.7890844,49.3711756 C55.6541891,49.2408775 55.472317,49.1718122 55.2856549,49.18 Z M34.946672,26.28 L39.0640759,26.28 C39.3632255,26.2853378 39.60446,26.5284821 39.6097559,26.83 L39.6097559,31 C39.60446,31.3015179 39.3632255,31.5446622 39.0640759,31.55 L34.946672,31.55 C34.6475223,31.5446622 34.4062879,31.3015179 34.400992,31 L34.400992,26.83 C34.4062879,26.5284821 34.6475223,26.2853378 34.946672,26.28 L34.946672,26.28 Z M34.400992,23.71 L34.400992,19.56 C34.4009437,19.2545841 34.6437033,19.0054539 34.946672,19 L39.0640759,19 C39.3632255,19.0053378 39.60446,19.2484821 39.6097559,19.55 L39.6097559,23.7 C39.60446,24.0015179 39.3632255,24.2446622 39.0640759,24.25 L34.946672,24.25 C34.65126,24.2448706 34.4115001,24.0076064 34.400992,23.71 L34.400992,23.71 Z M34.946672,33.3 L39.0640759,33.3 C39.3632255,33.3053378 39.60446,33.5484821 39.6097559,33.85 L39.6097559,38 C39.60446,38.3015179 39.3632255,38.5446622 39.0640759,38.55 L34.946672,38.55 C34.6475223,38.5446622 34.4062879,38.3015179 34.400992,38 L34.400992,33.85 C34.4009437,33.5445841 34.6437033,33.2954539 34.946672,33.29 L34.946672,33.3 Z M35.5618022,41.63 C35.8609519,41.6353378 36.1021863,41.8784821 36.1074823,42.18 L36.1074823,48.6 C36.1021863,48.9015179 35.8609519,49.1446622 35.5618022,49.15 L29.1922281,49.15 C28.8930784,49.1446622 28.6518439,48.9015179 28.646548,48.6 L28.646548,42.18 C28.6518439,41.8784821 28.8930784,41.6353378 29.1922281,41.63 L35.5618022,41.63 Z M30.2538238,23.71 C30.2485278,24.0115179 30.0072934,24.2546622 29.7081437,24.26 L25.5907399,24.26 C25.2915902,24.2546622 25.0503558,24.0115179 25.0450598,23.71 L25.0450598,19.56 C25.0450115,19.2545841 25.2877711,19.0054539 25.5907399,19 L29.7081437,19 C30.0072934,19.0053378 30.2485278,19.2484821 30.2538238,19.55 L30.2538238,23.71 Z M25.5907399,26.28 L29.7081437,26.28 C30.0072934,26.2853378 30.2485278,26.5284821 30.2538238,26.83 L30.2538238,31 C30.2485278,31.3015179 30.0072934,31.5446622 29.7081437,31.55 L25.5907399,31.55 C25.2915902,31.5446622 25.0503558,31.3015179 25.0450598,31 L25.0450598,26.83 C25.0503558,26.5284821 25.2915902,26.2853378 25.5907399,26.28 L25.5907399,26.28 Z M25.5907399,33.28 L29.7081437,33.28 C30.0072934,33.2853378 30.2485278,33.5284821 30.2538238,33.83 L30.2538238,38 C30.2485278,38.3015179 30.0072934,38.5446622 29.7081437,38.55 L25.5907399,38.55 C25.2915902,38.5446622 25.0503558,38.3015179 25.0450598,38 L25.0450598,33.85 C25.0450115,33.5445841 25.2877711,33.2954539 25.5907399,33.29 L25.5907399,33.28 Z M44.8482842,26.7 C44.8535801,26.3984821 45.0948146,26.1553378 45.3939642,26.15 L49.5113681,26.15 C49.8105177,26.1553378 50.0517522,26.3984821 50.0570481,26.7 L50.0570481,30.85 C50.0517522,31.1515179 49.8105177,31.3946622 49.5113681,31.4 L45.3939642,31.4 C45.0948146,31.3946622 44.8535801,31.1515179 44.8482842,30.85 L44.8482842,26.7 Z M44.8482842,33.97 C44.8535801,33.6684821 45.0948146,33.4253378 45.3939642,33.42 L49.5113681,33.42 C49.8105177,33.4253378 50.0517522,33.6684821 50.0570481,33.97 L50.0570481,38.12 C50.0517522,38.4215179 49.8105177,38.6646622 49.5113681,38.67 L45.3939642,38.67 C45.0948146,38.6646622 44.8535801,38.4215179 44.8482842,38.12 L44.8482842,33.97 Z M44.8482842,40.97 C44.8535801,40.6684821 45.0948146,40.4253378 45.3939642,40.42 L49.5113681,40.42 C49.8105177,40.4253378 50.0517522,40.6684821 50.0570481,40.97 L50.0570481,45.12 C50.0517522,45.4215179 49.8105177,45.6646622 49.5113681,45.67 L45.3939642,45.67 C45.0948146,45.6646622 44.8535801,45.4215179 44.8482842,45.12 L44.8482842,40.97 Z M13.8834229,26.7 C13.8887188,26.3984821 14.1299532,26.1553378 14.4291029,26.15 L18.5465068,26.15 C18.8456564,26.1553378 19.0868909,26.3984821 19.0921868,26.7 L19.0921868,30.85 C19.0868909,31.1515179 18.8456564,31.3946622 18.5465068,31.4 L14.4291029,31.4 C14.1299532,31.3946622 13.8887188,31.1515179 13.8834229,30.85 L13.8834229,26.7 Z M13.8834229,33.97 C13.8887188,33.6684821 14.1299532,33.4253378 14.4291029,33.42 L18.5465068,33.42 C18.8456564,33.4253378 19.0868909,33.6684821 19.0921868,33.97 L19.0921868,38.12 C19.0868909,38.4215179 18.8456564,38.6646622 18.5465068,38.67 L14.4291029,38.67 C14.1299532,38.6646622 13.8887188,38.4215179 13.8834229,38.12 L13.8834229,33.97 Z M13.8834229,40.97 C13.8887188,40.6684821 14.1299532,40.4253378 14.4291029,40.42 L18.5465068,40.42 C18.8456564,40.4253378 19.0868909,40.6684821 19.0921868,40.97 L19.0921868,45.12 C19.0868909,45.4215179 18.8456564,45.6646622 18.5465068,45.67 L14.4291029,45.67 C14.1299532,45.6646622 13.8887188,45.4215179 13.8834229,45.12 L13.8834229,40.97 Z" id="Shape"></path>
        </g>
    </g>
</svg>