<?xml version="1.0" encoding="UTF-8"?>
<svg width="64px" height="64px" viewBox="0 0 64 64" version="1.1" xmlns="http://www.w3.org/2000/svg" xmlns:xlink="http://www.w3.org/1999/xlink">
    <!-- Generator: Sketch 46.2 (44496) - http://www.bohemiancoding.com/sketch -->
    <title>7-contato</title>
    <desc>Created with Sketch.</desc>
    <defs></defs>
    <g id="Page-1" stroke="none" stroke-width="1" fill="none" fill-rule="evenodd">
        <g id="7-contato">
            <path d="M50.33,18.2 L13.67,18.2 C12.7476845,18.2 12,18.9476845 12,19.87 L12,44.14 C12.0054995,45.0584079 12.7515756,45.8000165 13.67,45.8 L50.33,45.8 C51.2484244,45.8000165 51.9945005,45.0584079 52,44.14 L52,19.87 C52,18.9476845 51.2523155,18.2 50.33,18.2 Z M38.09,33.2 C41.18,35.29 49.18,41.47 49.18,41.47 C49.4743685,41.7577084 49.5473115,42.2034713 49.36,42.57 C49.2727305,42.7478473 49.1160382,42.8818793 48.9268168,42.9405379 C48.7375953,42.9991966 48.5325647,42.9772986 48.36,42.88 C48.36,42.88 39.85,36.74 36.59,34.51 C36.4896387,34.4333146 36.3503613,34.4333146 36.25,34.51 L32.68,37.36 C32.2536756,37.69199 31.6563244,37.69199 31.23,37.36 L27.62,34.48 C27.5405818,34.4182794 27.4294182,34.4182794 27.35,34.48 C24.13,36.71 15.66,42.87 15.66,42.87 C15.2732915,43.0532648 14.8106376,42.920466 14.58,42.56 C14.3926885,42.1934713 14.4656315,41.7477084 14.76,41.46 C14.76,41.46 22.76,35.29 25.76,33.22 C25.93,33.1 25.76,32.93 25.76,32.93 L14.54,22.73 C14.1310737,22.3990414 14.0137245,21.8248685 14.26,21.36 C14.411685,21.0968183 14.6964327,20.9390527 15,20.95 C15.209564,20.9676192 15.4069692,21.0557465 15.56,21.2 L31.61,35.2 C31.8306783,35.3601307 32.1293217,35.3601307 32.35,35.2 L48.41,21.2 C48.5708418,21.0494058 48.7799277,20.9608101 49,20.95 C49.2929075,20.9500503 49.5635463,21.1063347 49.71,21.36 C49.9562755,21.8248685 49.8389263,22.3990414 49.43,22.73 L38.11,32.93 C38.11,32.93 38,33.06 38.09,33.2 Z" id="Shape" fill="#000000" fill-rule="nonzero"></path>
            <rect id="Rectangle-path" x="9" y="3" width="46" height="58"></rect>
        </g>
    </g>
</svg>