<?xml version="1.0" encoding="UTF-8"?>
<svg width="64px" height="64px" viewBox="0 0 64 64" version="1.1" xmlns="http://www.w3.org/2000/svg" xmlns:xlink="http://www.w3.org/1999/xlink">
    <!-- Generator: Sketch 46.2 (44496) - http://www.bohemiancoding.com/sketch -->
    <title>8-depoimentos_e_noticias</title>
    <desc>Created with Sketch.</desc>
    <defs></defs>
    <g id="Page-1" stroke="none" stroke-width="1" fill="none" fill-rule="evenodd">
        <g id="8-depoimentos_e_noticias">
            <path d="M29,31.6 C33.6174754,31.5559171 37.3291498,27.7847681 37.2998311,23.1671754 C37.2705124,18.5495826 33.5112504,14.8258693 28.8935875,14.8404235 C24.2759247,14.8549777 20.5402104,18.6023142 20.54,23.22 C20.5505835,25.4531307 21.4478542,27.590591 23.0344175,29.1621513 C24.6209807,30.7337116 26.7668696,31.6106339 29,31.6 L29,31.6 Z" id="Shape" fill="#000000" fill-rule="nonzero"></path>
            <path d="M45.23,52.15 L39.59,37.23 C39.45,36.85 38.23,34.35 35.98,34.35 L22.5,34.35 L22.02,34.35 C19.5,34.35 18.55,36.83 18.41,37.21 L12.77,52.15 C12.63,52.53 12.71,53 13.5,53 L17.71,53 C18.1476272,53.0075582 18.5448983,52.7453592 18.71,52.34 L21.4,45.12 C21.4,45.12 21.74,44.2 21.74,45.2 C21.71,46.57 21.71,50.25 21.71,52 C21.71,52.6 21.81,53 22.51,53 L36.26,53 C37.26,53 37.12,52.49 37.11,51.73 C37.11,49.86 37.11,46.46 37.11,45.14 C37.11,44.46 37.35,44.92 37.35,44.92 L39.88,52.22 C40.0496026,52.7005068 40.5106904,53.015988 41.02,53 L44.47,53 C45.27,53 45.37,52.53 45.23,52.15 Z M32.32,47.87 L29.48,50.48 C29.1990002,50.7441554 28.7609998,50.7441554 28.48,50.48 L25.71,47.87 C25.4283003,47.5819922 25.2986318,47.1781672 25.36,46.78 L26.84,39.71 C26.8776383,39.545275 26.9043631,39.3782453 26.92,39.21 L26.8,37.72 C26.7859835,37.5523999 26.842954,37.3866114 26.9570307,37.2630283 C27.0711073,37.1394452 27.2318158,37.0694149 27.4,37.07 L30.64,37.07 C30.8081842,37.0694149 30.9688927,37.1394452 31.0829693,37.2630283 C31.197046,37.3866114 31.2540165,37.5523999 31.24,37.72 L31.12,39.21 C31.1356657,39.3782416 31.1623902,39.5452694 31.2,39.71 L32.71,46.79 C32.7578252,47.1913858 32.6132396,47.5917765 32.32,47.87 Z" id="Shape" fill="#000000" fill-rule="nonzero"></path>
            <path d="M57.55,4 L39.44,4 C38.7551669,4 38.2,4.55516691 38.2,5.24 L38.2,16.4 C38.2,17.0848331 38.7551669,17.64 39.44,17.64 L42.71,17.64 C43.0181435,17.6324272 43.3125606,17.7673825 43.5079604,18.0057702 C43.7033601,18.2441579 43.7779051,18.5593363 43.71,18.86 L43.11,21.95 C42.98,22.62 43.29,22.8 43.81,22.35 L48.25,18.46 C48.8711746,17.9689167 49.6292916,17.6824393 50.42,17.64 L57.6,17.64 C58.2848331,17.64 58.84,17.0848331 58.84,16.4 L58.84,5.24 C58.8402747,4.90228233 58.7027911,4.57906277 58.4593167,4.34502535 C58.2158423,4.11098794 57.8874431,3.98638224 57.55,4 Z M41.92,8.11 C41.92,7.81176624 42.1617662,7.57 42.46,7.57 L52.04,7.57 C52.3382338,7.57 52.58,7.81176624 52.58,8.11 L52.58,8.58 C52.58,8.87823376 52.3382338,9.12 52.04,9.12 L42.47,9.12 C42.1717662,9.12 41.93,8.87823376 41.93,8.58 L41.93,8.11 L41.92,8.11 Z M55.07,12.79 C55.07,13.0882338 54.8282338,13.33 54.53,13.33 L42.47,13.33 C42.1717662,13.33 41.93,13.0882338 41.93,12.79 L41.93,12.33 C41.93,12.0317662 42.1717662,11.79 42.47,11.79 L54.53,11.79 C54.8282338,11.79 55.07,12.0317662 55.07,12.33 L55.07,12.79 Z" id="Shape" fill="#000000" fill-rule="nonzero"></path>
            <rect id="Rectangle-path" x="6" y="4" width="46" height="58"></rect>
        </g>
    </g>
</svg>