<svg xmlns="http://www.w3.org/2000/svg" viewBox="0 0 204.35 107.3">
  <g>
    <path fill="#97171c" d="M200.56 31.68c-3.83-5.23-9.66-8.61-15.51-11.13-6.08-2.61-12.78-5.12-19.4-5.71-4.06-.37-8.36-.12-12.13-1.87-4.81-2.23-9.06-5.32-14.21-6.82-8.44-2.47-17.57-1.93-26.23-3.32C105.75 1.66 98.25 0 90.79 0c-6.71 0-13.18 3.43-19.21 6a104.68 104.68 0 0 1-10 4c-4.25 1.34-8.52 2.29-12.66 4-4.44 1.83-8.72 4-13.16 5.85S26 22.61 21.91 25.37c-7.25 4.86-10 13.87-14.34 21-10.12 7.81-9.78 23.73-.85 32.43 6.53 6.37 15.57 8.68 24 11.21 9.49 2.85 18.06 8 27.87 9.74 10.73 2 21.64 3.14 32.44 4.67l15.7 2.22c4 .56 8.11 1.44 11.6-1.07 1.82-1.3 3.09-3.32 5.1-4.36a11.82 11.82 0 0 1 6.2-.85c4.59.3 8.92 1.38 13.54.57 8-1.41 14.72-6.6 20.82-11.67 8.66-7.2 17.54-13.7 26.75-20.15 6.57-4.62 13.38-10.55 13.23-19.26a1.81 1.81 0 0 0-.23-.85c1.26-6 .59-12.17-3.18-17.32zm-13.25 35.58c-6.88 4.64-13.61 9.4-20 14.69C161.09 87.1 155 93 147.42 96.1a23.42 23.42 0 0 1-11.17 1.56c-3.73-.35-7.5-1.31-11.24-.59-3.35.64-5.12 2.63-7.58 4.75-4.1 3.52-10.31 1.38-15.18.69l-28-4c-9.51-1.34-18.9-2.31-27.78-6.21C38.76 89 30.93 86.71 23 84c-7.6-2.58-15.88-6.9-18.43-15.1C2.74 63.14 3.21 56.63 6.85 52a1.61 1.61 0 0 0 1.9.76c6.19-1.69 10.85 3.9 8.61 9.74a1.78 1.78 0 0 0 1.7 2.23c4.59.07 6.83 6 9.64 8.86 3.12 3.19 7.21 4.26 11.56 4.4 5.27.16 11.16-1.19 16.12 1.15s7.62 6.07 13.41 6.31c3.15.12 6.21-.36 9.35.23a69.94 69.94 0 0 1 9.61 2.9 53.16 53.16 0 0 0 18.47 2.79c5.89-.14 13.08-.16 18.69-2.14a17.46 17.46 0 0 0 5.2-3.32 32 32 0 0 1 9.15-5.35 36.7 36.7 0 0 1 10.39-1.88 17.55 17.55 0 0 0 8-1.94c2.34-1.39 4.15-3.51 6.23-5.23a30.18 30.18 0 0 1 4.55-3.06 1.6 1.6 0 0 0 1.46-.75 34.47 34.47 0 0 1 3.93-1.61c2.13-.73 1.22-4.14-.94-3.4-.54.18-1.07.38-1.59.59 2-2.4 5.74-4.1 7-6.64s1.44-5.87 2.54-8.61c1.64-4.1 4.91-6.59 9.32-6.12 2.07.23 4.58 1.45 6.64.7s1.2-4.18-.93-3.4c-1 .35-2.32-.25-3.27-.44a17.89 17.89 0 0 0-4.89-.42 10.41 10.41 0 0 0-5 1.78c-5.94-9.78-19.38-9.83-29.25-12.59-6.2-1.73-11.74-5.17-17.69-7.55a34.94 34.94 0 0 0-8.57-2.36c-3.66-.48-7.37.09-11-.46-6.21-1-12-3.31-18.31-3.87a49.47 49.47 0 0 0-17.14 1.31 34.59 34.59 0 0 0-7 2.72C72 18.76 69.82 21 67.17 22.49c-5.49 3.15-11.78 1.3-17.69 2.52-6.09 1.26-12.07 5.77-16.8 9.65a52.35 52.35 0 0 0-13.22 16c-1.06 2 2 3.79 3 1.78a49.13 49.13 0 0 1 11-13.89c4.34-3.84 9.89-8 15.49-9.82 4.8-1.53 10-.22 14.94-1.29 5.53-1.19 9.12-5.64 14.16-7.87 10.74-4.76 22.85-3.18 33.78-.1a27.93 27.93 0 0 0 4.82.88 11.08 11.08 0 0 0-4.79 10.84c.1.74 1 1 1.63.92a9.61 9.61 0 0 0 7.25-11.51 48.85 48.85 0 0 1 9.77 1c5.72 1.41 10.85 4.43 16.2 6.79 5.87 2.58 11.92 3.08 18 4.92s12.8 3 16.22 9a1.33 1.33 0 0 0 .14.19 16.15 16.15 0 0 0-2 3.15c-1.48 3.06-1.37 7.28-3.31 10-2.54 3.52-7.83 5.12-8.2 9.87a37.86 37.86 0 0 0-6.82 4.95c-2.55 2.32-4.77 4.11-8.32 4.54-2.66.32-5.32.28-8 .76a33.36 33.36 0 0 0-14.55 6.62c-2.71 2.13-4.75 3.64-8.29 4.17s-6.9.83-10.34 1.07a53 53 0 0 1-20.34-2.07c-5.83-1.88-11.22-3.94-17.43-3.75-3.34.1-6.22.21-9.16-1.61-2.25-1.4-4.16-3.26-6.6-4.36-3.27-1.49-6.82-1.66-10.36-1.59 2.12-1.69 3.5-4.48 4.4-7.18.35-1.06-.71-1.75-1.63-1.62A13.23 13.23 0 0 0 40 73.16a1.35 1.35 0 0 0 0 1.26 16.67 16.67 0 0 1-4.56-.69c-3.07-1-4.89-3.27-6.76-5.75-2.09-2.77-4.17-5.55-7.4-6.48A10.55 10.55 0 0 0 10 49a2.1 2.1 0 0 0 .44-.49c3.85-6.32 6.31-14.51 12.14-19.27 3.45-2.83 7.91-3.58 12-5.12C38.33 22.71 42 21 45.63 19.31c6.69-3.07 13.75-4.51 20.53-7.2C72.69 9.53 79 6.18 85.77 4.28c6.52-1.82 13.8-.1 20.33 1a188.67 188.67 0 0 0 20.22 2.54 47.64 47.64 0 0 1 14.45 2.56c4.61 1.75 8.53 5.1 13.23 6.64 3.08 1 6.51 1 9.71 1.24a44.56 44.56 0 0 1 10.34 2.09c13.53 4.12 30.19 11.65 26.12 28.75a1.65 1.65 0 0 0 .29 1.46c-.27 7.68-7.29 12.75-13.15 16.7zm-144.42 6a10.75 10.75 0 0 1 5.42-4.56c-1.06 2.3-2.73 4.65-5.42 4.53zm71.48-44.16a8.4 8.4 0 0 1 4-6.63 7 7 0 0 1-4 6.6zm-59.07 26a6.08 6.08 0 0 0 2.09-4 .76.76 0 0 0-.27-.65.82.82 0 0 0-.81-.65 5.77 5.77 0 0 0-4.12 2.09c-.9 1-1.55 2.64-.39 3.75s2.57.29 3.5-.55zm-1.44-2.4a4.68 4.68 0 0 1 1.65-1 4.8 4.8 0 0 1-1 1.74c-.19.21-1.11 1.2-1.45.92s.58-1.46.8-1.66zm27.89-16.37c1.29.14 3.38-.13 4-1.43a1.7 1.7 0 0 0-.29-2c-.62-.63-1.54-.69-2.28-1.08a.53.53 0 0 0-.17 0 .72.72 0 0 0-.24-.29A2.46 2.46 0 0 0 79 32.64c-.65 1.82 1 3.5 2.75 3.69zm-1.06-3.23c.13-.23.61-.56.88-.35a.88.88 0 0 0 .38.18.75.75 0 0 0 .38.43c.34.18 1.71.44 1.85.75s-1 .4-1.19.43a2.37 2.37 0 0 1-1.93-.32.94.94 0 0 1-.37-1.12zm9.6 4.12c1.55.26 3.58 0 4.18-1.71.47-1.32-.07-3.1-1.62-3.19-1.56-.45-3.69-.16-4.57 1.38s.34 3.24 2.01 3.52zM90 34.38a2.47 2.47 0 0 1 2.28-.38h.21a.5.5 0 0 0 .13 0h.12a.64.64 0 0 1 .11.31 1.11 1.11 0 0 1-.2.79c-.42.48-1.55.44-2.11.33S89.4 35 90 34.38zM98.6 33a8.12 8.12 0 0 0 2.21-.86 2.45 2.45 0 0 0 .38 2.75A1.85 1.85 0 0 0 104 35a4.59 4.59 0 0 0 1.17-3.44v-.06a1.42 1.42 0 0 0 0-.22.49.49 0 0 0 0-.11.74.74 0 0 0-.54-.46 4.23 4.23 0 0 0-2.26.18 5.62 5.62 0 0 0 .44-.53.79.79 0 0 0-.46-1.22.85.85 0 0 0-.36-.53c-2.13-1.5-6-.23-6.1 2.62-.18 1.64 1.4 2.04 2.71 1.77zm4.75-.55a3 3 0 0 1-.35 1 1.41 1.41 0 0 1-.36.4s0 .06-.11-.1c-.65-.75.09-1.2.82-1.33zm-5.62-1.65a2.26 2.26 0 0 1 3-.82A4.64 4.64 0 0 1 99 31a3.16 3.16 0 0 1-1.14.33c-.4-.06-.31-.14-.13-.53zm-1.86 40.63a5.26 5.26 0 0 0 4.44-3.15 3.53 3.53 0 0 0-1.89-4.56.69.69 0 0 0-.8.15A8 8 0 0 0 94 67.8c-.69 1.57-.13 3.63 1.87 3.63zm.36-4.08a6.8 6.8 0 0 1 2-1.78 2 2 0 0 1 .19 2.61c-.41.54-1.94 1.88-2.71 1.46s.2-1.86.52-2.29zm13.13-1.57a2.25 2.25 0 0 0 .64.08c-.62 1.29-.25 3.21 1.35 3.5 2.1.37 3.88-2.16 4.35-3.91a1.23 1.23 0 0 0-.38-1.65 2.44 2.44 0 0 0-1.84 0h-.08a1.35 1.35 0 0 0 0-.72c-.19-.65-.82-1-1.21-1.55a.73.73 0 0 0-.74-.42 4.08 4.08 0 0 0-3.3 1.85 2 2 0 0 0 1.21 2.82zm4.46-.26a3.69 3.69 0 0 1-1.76 2c-.31.13-.46.19-.57-.12a1 1 0 0 1 .1-.79c.28-.51 1.15-.74 1.66-.93zm-4-1.89a2.26 2.26 0 0 1 1.31-.73 5.6 5.6 0 0 0 .4.45l.1.12-.1.09a2.31 2.31 0 0 1-1.49.54c-.4-.01-.5-.16-.25-.47zm-3 7.54a5.47 5.47 0 0 0 1.32-5.17.67.67 0 0 0-.63-.69 4.21 4.21 0 0 0-2.83.57 11.65 11.65 0 0 0-2.51 1.78 3.2 3.2 0 0 0-.23 4.21c1.35 1.46 3.64.49 4.81-.7zm-.22-4.1a3.5 3.5 0 0 1-.55 2.24c-.41.66-2 2.18-2.79 1.34-1.26-1.28 1.8-3.22 3.27-3.58zm50.5-17.19a9.8 9.8 0 0 0 5.55-1.68c1.46-1.05 1.53-2.6.07-3.57a.7.7 0 0 0-.59-.27H162c-2.18.25-5.81.14-7.17 2.25-1.17 1.89.46 3.23 2.27 3.27zm-.24-2.75c1.39-.84 3.35-.83 4.95-1 .51.39-.11.64-.76 1a8.91 8.91 0 0 1-3.57 1c-.86.02-1.97-.19-.62-1zm9.24-.93c1.56 0 2.43-1.7 2.36-3.09a.91.91 0 0 0-.14-.43.78.78 0 0 0-.74-.45c-.71 0-1.42-.27-2.13-.2a1.54 1.54 0 0 0-1.45 1.64 2.08 2.08 0 0 0 2.1 2.53zm-.43-2c0-.05 0-.11 0 0zm.94-.27a.75.75 0 0 1-.44.52.4.4 0 0 1-.36-.08l-.12-.13a2.54 2.54 0 0 0 .12-.4h.17c.19-.02.41.02.63.06zm-23-1.79c.06 0 .07 0 0 0zm-7.25 15.51c2.76-1 4.81 2.9 7.68 2.5 2-.28 3.56-2 5.22-3a20.16 20.16 0 0 1 18.92-1.18c1 .46 1.93-1 .89-1.52a24.07 24.07 0 0 0-4.15-1.45c4-1 8.52-2.73 7.39-6.83.06-.12.12-.24.17-.37a4.19 4.19 0 0 0-2.07-5.47.88.88 0 0 0-.22-.1c-8.64-3-18.59-3.86-27.45-1.18-4.28 1.29-7.79 5.29-6.49 8.89-.06 1.13-.23 2.24-.31 3.38a.91.91 0 0 0 .44.76 34 34 0 0 0 12 3.8 9.92 9.92 0 0 1-4.76 1.89c-2.48.07-2.41-.87-4.47-1.74a3.87 3.87 0 0 0-3.21-.08c-1.11.36-.65 2.05.41 1.67zm25.18-5.69c.72-.21 1.43-.44 2.12-.67 2-.69 4.68-1.42 6.62-2.8-1.36 2.1-6.01 2.92-8.75 3.44zm-6-10.39a6.79 6.79 0 0 1-4.07 2.25c-.48 0-1.18.17-1-.43.08-.37.56-.7.85-.91s3.95-1.56 4.25-.94zm-8.04 4.53h.1a.47.47 0 0 0 .14 0c.5 0-.71 1.14-.77 1.19a8.18 8.18 0 0 1-.69.45c-.49.28-1.4.76-2 .54-1-.38 0-1.37.54-1.62a5.24 5.24 0 0 1 2.68-.56zm-3.12-2.8a2.18 2.18 0 0 1-1.5.5c-.26 0-1.1.11-1.26-.1l.07-.17a2.77 2.77 0 0 1 .7-.75 5 5 0 0 1 .77-.49 3.45 3.45 0 0 0 .34-.14h.1-.1a.94.94 0 0 0 .29 0h.13a1 1 0 0 0 .23-.06c.09 0 .3.35.35.47a.75.75 0 0 1-.12.74zm-4.38-.14a1.76 1.76 0 0 0 1.56 2.33 7.73 7.73 0 0 0 1.8 0 3.42 3.42 0 0 0-.84.86 2.38 2.38 0 0 0 1.53 3.71c1.67.28 3.63-.82 4.75-2s1-3.34-.76-3.64h-.34a6.58 6.58 0 0 0-2 .11 2.18 2.18 0 0 0 .6-1.2 2.76 2.76 0 0 0-.65-2.28 46.7 46.7 0 0 1 6.6-.83 7.51 7.51 0 0 0-2.56 1.33c-1.22 1.18-1.63 3.39.42 4 2.6.71 5-1.06 6.78-2.73a.85.85 0 0 0 .33-.39.74.74 0 0 0 .1-.45 1.75 1.75 0 0 0-.5-1.69 45.76 45.76 0 0 1 12.27 2.44q1.74 3-1.07 4.09l-1.65.73c-1.12.46-2.27.87-3.42 1.26a52.68 52.68 0 0 1-7.09 1.93c-4.45.84-14 1.65-16.75-3.11a3 3 0 0 1 .89-4.47zm-2.28 7.32a1.91 1.91 0 0 1-.08-.44 9 9 0 0 0 1.55 1.18 16.67 16.67 0 0 0 2.23 1.13l-.31-.1c-1-.34-3.11-.79-3.39-1.77zm11.84 3.79c-1.13-.15-2.26-.36-3.38-.61a26.8 26.8 0 0 0 5.67.18 14.06 14.06 0 0 0-1.63.85.93.93 0 0 0-.66-.42zm-38.64-9.14c-.83-.78.42-2 1.24-1.25 4.42 4.16 11.2-3.9 16.27.43.87.73-.38 2-1.24 1.24-4.66-3.98-11.19 4.32-16.27-.42zM30.21 62.34a5.47 5.47 0 0 0 3.85 2.15 13.84 13.84 0 0 0-2.68 2.14c-.79.81.46 2.06 1.25 1.25 6.88-7.1 16.86-1.41 24.44-5.39a.89.89 0 0 0 .6-.2c.17-.13.31-.3.47-.44l.24-.17c7.16-5.11 16.85 1.76 23.61-4.49.83-.77-.41-2-1.25-1.25-3.84 3.55-9.15 2.15-13.82 1.87a14.7 14.7 0 0 0-6.44.87A14.69 14.69 0 0 0 62 52.44a10.1 10.1 0 0 0 .32-1.26v-.35c.56-6.44-7.86-5.4-11.85-4.36-4.38 1.13-9 .14-13.22 1.81-3 1.18-6.07 3.35-7.33 6.43a5.15 5.15 0 0 0-.2 4.06 5.12 5.12 0 0 0 .49 3.57zm26.73-1.78a13.64 13.64 0 0 1-7.53 1.69 20.88 20.88 0 0 0 9.91-5.38 10.12 10.12 0 0 1-2.38 3.69zm-9.58-3.85l.07.07a2.1 2.1 0 0 1-2 1.32c-.56 0-2-.42-2.11-1.13s1.21-1.26 1.73-1.31a2.49 2.49 0 0 1 2.31 1.05zM44.1 52c-.23-.18-.25 0-.11-.29.23-.44.9-.47 1.32-.47a7.46 7.46 0 0 1 2.43.52c-1 .63-2.96.77-3.64.24zm-11.31 2.9c-.22 1.29 1 2.36 2.14 2.8s3 .64 4.08-.32a2 2 0 0 0 .55-2.05c-.31-1-1.33-1.56-2-2.33a.75.75 0 0 0-1.14 0 4.28 4.28 0 0 0-2.19.22c2.65-2.56 5.67-2.89 8.85-3a2 2 0 0 0-.5 2.78 3.24 3.24 0 0 0 1.82 1c-1.39.35-2.94 1.63-2.77 3.18s2.16 2.55 3.59 2.66a4 4 0 0 0 4.12-3.27.93.93 0 0 0-.71-1.07 4.48 4.48 0 0 0-2.25-1.5c1.61-.26 3.16-1.14 3.61-2.42a.32.32 0 0 0 0-.13.36.36 0 0 0 0-.14.65.65 0 0 0 0-.14.67.67 0 0 0-.3-.48.43.43 0 0 0-.13-.09 19.19 19.19 0 0 0-2-.77l.76-.1c2.31-.38 11.51-3.78 11.32.9-1.17 5.79-7.84 8.57-13.09 9.52a24.65 24.65 0 0 1-9.83-.2c-.93-.21-3.2-.64-3.88-1.24-1.28-1.15-.84-2.61-.05-3.81zm3.85-.13a1.05 1.05 0 0 0 .37.09c.48.41 1 .91.82 1.22s-1.53.19-1.89.1-1.41-.41-1.41-.91c-.01-.78 1.67-.69 2.11-.5zm1 8.13l-.36.12c-1.67-.05-4.63 0-5.6-1.72a2.53 2.53 0 0 1-.19-.48 14.6 14.6 0 0 0 6.11 2.08zm36-28.36a.83.83 0 0 1 0 .15 4.91 4.91 0 0 0 .17.63c.57 2.38.44 4.87 3.06 6.1a16.06 16.06 0 0 0 5.92 1.18 13.53 13.53 0 0 0-2.59 1.77c-.85.75.4 2 1.25 1.24a13.4 13.4 0 0 1 5.6-2.8.68.68 0 0 0 .46-.12c2.85-.65 5.89-.75 8.79-1.13a24.84 24.84 0 0 0 5.91-1.34 17.34 17.34 0 0 0 2.6-1.37 8.51 8.51 0 0 0 2.33-1.12 5.21 5.21 0 0 1 2.39-.18c2.11.33 3.86 1.65 6.08 1.66a9.36 9.36 0 0 0 4.29-1.15c3.9-2 6.83-5.94 11.4-6.47 1.11-.13 1.12-1.89 0-1.76-4.41.51-7.28 3.57-10.85 5.86A8.06 8.06 0 0 1 113 36.9a28.62 28.62 0 0 0-4.11-1.23 6.92 6.92 0 0 0-1.34-7.26c-2.67-3.1-7-3.4-10.85-3.58a48.54 48.54 0 0 0-10 0L88.2 19a1.33 1.33 0 0 0-1.62-1.62 10.28 10.28 0 0 0-8.17 9.25 1.11 1.11 0 0 0 .25.85 16.81 16.81 0 0 0-2.59 1.94 6.86 6.86 0 0 0-2.49 4.71.8.8 0 0 0 .01.41zm14.68-3.89a2 2 0 0 1-1.35.17l-.53-.26c.14-.14.29-.31.36-.37a9.91 9.91 0 0 1 1-.68 8 8 0 0 1 1.46-.67 1.93 1.93 0 0 1-.99 1.81zM85 20.69l-1.18 4.49v.14a19.75 19.75 0 0 0-2.7.87 7.5 7.5 0 0 1 3.88-5.5zm-7.41 10.87c1.13-1.6 3.69-2.74 5.48-3.35a20.07 20.07 0 0 1 5.55-1C86.5 27.92 83 30 85 31.79a3.67 3.67 0 0 0 4.64 0 3.75 3.75 0 0 0 .91-4.47.6.6 0 0 0-.14-.2c2.09 0 4.19.16 6.23.33 3 .15 6.73.21 8.84 2.71 2.76 3.28.23 5.8-3.12 6.53a53.41 53.41 0 0 1-17.66.45c-2.36-.28-10.7-.55-7.11-5.58zm7.15 8.24a60.61 60.61 0 0 0 7.37.44 41.89 41.89 0 0 0-5.11.81 68.56 68.56 0 0 1-7.29-.67c-1.68-.32-3.13-.86-3.7-2.56 2.48 1.51 6.13 1.67 8.73 1.98zm-33.57-7c5.08 2.59 13.7-1.8 16.44 5.2.41 1.06-1.29 1.51-1.7.47-1.4-3.57-5.93-3.1-9-3a12.68 12.68 0 0 1-6.64-1.11c-1.01-.5-.11-2.02.9-1.52zm90 33.94c.72-.86-.52-2.11-1.25-1.24-2.29 2.72-6.37.52-9.3.22a9.6 9.6 0 0 0-4.72.49v-1.16a.78.78 0 0 0-.22-.6 4.62 4.62 0 0 0-2.6-4.12 1.54 1.54 0 0 0-.41-.18c-8.18-2.15-18.39-3.63-26.37 0A16.39 16.39 0 0 0 88.5 67c-1.07 2-.74 3.36.35 4.5L89 73a4 4 0 0 0-.64-.24c-4-1.12-8.29 1.08-11.87 2.53-1 .43-.58 2.13.47 1.7 4.81-1.95 9.73-4.44 14.12-.37 1.86 1.73 3.4 3.5 6.12 2.86 2.49-.59 4.38-1.57 7.08-1.34 2.31.2 4.57.82 6.9.7 4.5-.23 8.59-4.25 13.14-2.74 1.08.36 1.54-1.35.47-1.7a7.57 7.57 0 0 0-2.13-.39l.33-.2a6.44 6.44 0 0 0 2.86-5.54c4.43-3.43 11.2 3.39 15.31-1.49zm-37.07-5.19a17.25 17.25 0 0 0 2 .14c-.39 1-2.23 1.43-3.15 1-1.45-.64.43-1.2 1.15-1.14zm-11.19 4a14.58 14.58 0 0 1 3.26-2.38 17.84 17.84 0 0 1 4.62-1.74 2.22 2.22 0 0 0 1.2 2.79c2.36 1.19 6.5-.46 5.9-3.42a56.56 56.56 0 0 1 14 1.93c1.58.77 1.68 1.76 1.08 2.75a1.92 1.92 0 0 0-1.3-2.54c-1.22-.83-3 .43-4 1.18a2.6 2.6 0 0 0 .22 4.45 2.89 2.89 0 0 0 .78.23c-.36.18-.68.32-.93.42a78.7 78.7 0 0 1-8.33 2.73 29.81 29.81 0 0 1-9 1.13c-2.75-.14-7.86-.74-9.09-3.61-.71-1.8.16-2.47 1.59-3.93zm27.87-1.12zm-.15 0h.09l.23.11c.38.09.34 0 .33.33a2.26 2.26 0 0 1-.46.93c-.42.66-1.17 1.51-2.07 1.2s-.36-1.28.16-1.66a8.43 8.43 0 0 1 1.1-.69 5.09 5.09 0 0 0 .62-.2zm3.25 5.76c-.48 1.47-2 2.24-3.24 3a38.85 38.85 0 0 1-7.46 3.46 1.1 1.1 0 0 0-.26.15c-4.67 1-9.3-1.46-14 .14-3.79 1.3-4.73.13-7.32-2.18-.27-.25-.55-.47-.82-.69 0-.38-.07-.76-.1-1.14l.85.48c8.15 4.4 17.63 1.69 25.75-1.23 2.33-.84 5.11-1.72 6.84-3.6a6.79 6.79 0 0 1-.24 1.63zm-54.31-3.54a10.81 10.81 0 0 0-8.67 4.45 1.34 1.34 0 0 0 .48 1.81 7.3 7.3 0 0 0 10.55-5.57c.16-1.4-1.64-1.62-2.36-.69zm-5.09 4.44a8.09 8.09 0 0 1 3.9-1.71 4.93 4.93 0 0 1-3.9 1.71zm23.68-17.61c2.53 1.82 5.75 1.46 8.57.63a1.22 1.22 0 0 0 .85-.78 1.21 1.21 0 0 0-.06-1.16 11.88 11.88 0 0 0-11.6-5.55 1.34 1.34 0 0 0-.92 1.62 8.72 8.72 0 0 0 3.16 5.24zm1.33-2.3a5.1 5.1 0 0 1-1.44-2.07A9.81 9.81 0 0 1 94.12 52a5.56 5.56 0 0 1-4.63-.82zM39.13 38.7a1.33 1.33 0 0 0 .15.32c1.95 4.39 6.88 7.82 11.77 6.86A1.29 1.29 0 0 0 52 45a6.3 6.3 0 0 0-2.67-6.54c-2.59-1.86-5.93-1.75-9-1.54a1.3 1.3 0 0 0-.61.2 1.07 1.07 0 0 0-.66 1.47zm10.4 4.72c-2.69.11-5.48-1.7-7-4 3.05.07 7.1.71 7 4zm87.76-5.35a7.87 7.87 0 0 0 7.17-7.8 1.33 1.33 0 0 0-1.67-1.27 9.33 9.33 0 0 0-6.66 7.17 1.28 1.28 0 0 0 0 .19c-.29.8.1 1.81 1.16 1.71zm3.9-5.36a5.25 5.25 0 0 1-1.62 1.85 6.69 6.69 0 0 1 1.62-1.85zm15.41 31.58a7.93 7.93 0 0 0-8.64 8 1.25 1.25 0 0 0 .63 1.08 1.11 1.11 0 0 0 1.33.39 12.6 12.6 0 0 0 8-7.82c.28-.87-.54-1.55-1.32-1.65zm-5.74 6.21a5.38 5.38 0 0 1 3.57-3.39 9.76 9.76 0 0 1-3.57 3.39zm-3.66.6a12.47 12.47 0 0 0-11.84-1.64 1.34 1.34 0 0 0-.79 1.94 9.1 9.1 0 0 0 12.81 2.69 1.4 1.4 0 0 0 .39-1.84 1.36 1.36 0 0 0-.57-1.15zm-9.14.38a9.78 9.78 0 0 1 6.53 1.09 6.48 6.48 0 0 1-6.53-1.09zm-34.3 9.34a1.34 1.34 0 0 0-.58 2.21 12.24 12.24 0 0 0 11.29 3.64 1.07 1.07 0 0 0 .89-.75 1.29 1.29 0 0 0 .46-1.29c-1.12-5.79-7.82-5.1-12.06-3.81zm3.15 1.91c2.31-.47 4.91-.51 6 1.49a9.33 9.33 0 0 1-6-1.49z"/>
  </g>
</svg>